\relax 
\catcode `:\active 
\catcode `;\active 
\catcode `!\active 
\catcode `?\active 
\babel@aux{french}{}
\@writefile{toc}{\contentsline {section}{\numberline {1}Outils choisis}{1}}
\@writefile{toc}{\contentsline {section}{\numberline {2}Difficult\IeC {\'e}s}{1}}
\@writefile{toc}{\contentsline {section}{\numberline {3}Structure}{1}}
\@writefile{toc}{\contentsline {section}{\numberline {4}Algorithmes}{2}}
\@writefile{toc}{\contentsline {subsection}{\numberline {4.1}Bresenham}{2}}
\@writefile{toc}{\contentsline {subsection}{\numberline {4.2}Espaces projectifs}{2}}
\@writefile{toc}{\contentsline {subsection}{\numberline {4.3}Quaternions}{3}}
